{
  "expand": "renderedFields,names,schema,operations,editmeta,changelog,versionedRepresentations",
  "id": "16119784",
  "self": "https://issues.stage.redhat.com/rest/api/2/issue/16119784",
  "key": "RHEL-45235",
  "fields": {
    "customfield_12322243": null,
    "customfield_12322244": null,
    "customfield_12322640": null,
    "customfield_12318141": null,
    "customfield_12324940": null,
    "customfield_12316240": null,
    "customfield_12324540": "0.0",
    "customfield_12322241": null,
    "fixVersions": [
      {
        "self": "https://issues.stage.redhat.com/rest/api/2/version/12414808",
        "id": "12414808",
        "description": "PPSync [release:2566]",
        "name": "rhel-9.5",
        "archived": false,
        "released": false
      }
    ],
    "resolution": null,
    "customfield_12314740": "{summaryBean=com.atlassian.jira.plugin.devstatus.rest.SummaryBean@504fc101[summary={pullrequest=com.atlassian.jira.plugin.devstatus.rest.SummaryItemBean@186635f8[overall=PullRequestOverallBean{stateCount=0, state='OPEN', details=PullRequestOverallDetails{openCount=0, mergedCount=0, declinedCount=0}},byInstanceType={}], build=com.atlassian.jira.plugin.devstatus.rest.SummaryItemBean@4e225928[overall=com.atlassian.jira.plugin.devstatus.summary.beans.BuildOverallBean@67c26ce1[failedBuildCount=0,successfulBuildCount=0,unknownBuildCount=0,count=0,lastUpdated=<null>,lastUpdatedTimestamp=<null>],byInstanceType={}], review=com.atlassian.jira.plugin.devstatus.rest.SummaryItemBean@6424b0c5[overall=com.atlassian.jira.plugin.devstatus.summary.beans.ReviewsOverallBean@5a8ebb3b[stateCount=0,state=<null>,dueDate=<null>,overDue=false,count=0,lastUpdated=<null>,lastUpdatedTimestamp=<null>],byInstanceType={}], deployment-environment=com.atlassian.jira.plugin.devstatus.rest.SummaryItemBean@639425b[overall=com.atlassian.jira.plugin.devstatus.summary.beans.DeploymentOverallBean@72e88319[topEnvironments=[],showProjects=false,successfulCount=0,count=0,lastUpdated=<null>,lastUpdatedTimestamp=<null>],byInstanceType={}], repository=com.atlassian.jira.plugin.devstatus.rest.SummaryItemBean@330bb719[overall=com.atlassian.jira.plugin.devstatus.summary.beans.CommitOverallBean@1c738520[count=0,lastUpdated=<null>,lastUpdatedTimestamp=<null>],byInstanceType={}], branch=com.atlassian.jira.plugin.devstatus.rest.SummaryItemBean@5094376f[overall=com.atlassian.jira.plugin.devstatus.summary.beans.BranchOverallBean@6652962f[count=0,lastUpdated=<null>,lastUpdatedTimestamp=<null>],byInstanceType={}]},errors=[],configErrors=[]], devSummaryJson={\"cachedValue\":{\"errors\":[],\"configErrors\":[],\"summary\":{\"pullrequest\":{\"overall\":{\"count\":0,\"lastUpdated\":null,\"stateCount\":0,\"state\":\"OPEN\",\"details\":{\"openCount\":0,\"mergedCount\":0,\"declinedCount\":0,\"total\":0},\"open\":true},\"byInstanceType\":{}},\"build\":{\"overall\":{\"count\":0,\"lastUpdated\":null,\"failedBuildCount\":0,\"successfulBuildCount\":0,\"unknownBuildCount\":0},\"byInstanceType\":{}},\"review\":{\"overall\":{\"count\":0,\"lastUpdated\":null,\"stateCount\":0,\"state\":null,\"dueDate\":null,\"overDue\":false,\"completed\":false},\"byInstanceType\":{}},\"deployment-environment\":{\"overall\":{\"count\":0,\"lastUpdated\":null,\"topEnvironments\":[],\"showProjects\":false,\"successfulCount\":0},\"byInstanceType\":{}},\"repository\":{\"overall\":{\"count\":0,\"lastUpdated\":null},\"byInstanceType\":{}},\"branch\":{\"overall\":{\"count\":0,\"lastUpdated\":null},\"byInstanceType\":{}}}},\"isStale\":false}}",
    "customfield_12317334": null,
    "customfield_12318148": "2026-03-05",
    "customfield_12315950": null,
    "customfield_12310940": null,
    "customfield_12321440": null,
    "lastViewed": "2024-09-05T09:29:14.808+0000",
    "customfield_12325242": null,
    "customfield_12317340": null,
    "customfield_12321040": null,
    "customfield_12325241": null,
    "customfield_12317341": null,
    "customfield_12323341": [
      {
        "self": "https://issues.stage.redhat.com/rest/api/2/customFieldOption/34166",
        "value": "TestOnly",
        "id": "34166",
        "disabled": false
      }
    ],
    "customfield_12319640": null,
    "customfield_12317342": null,
    "customfield_12313140": null,
    "customfield_12315041": {
      "self": "https://issues.stage.redhat.com/rest/api/2/customFieldOption/12953",
      "value": "Not Started",
      "id": "12953",
      "disabled": false
    },
    "priority": {
      "self": "https://issues.stage.redhat.com/rest/api/2/priority/10200",
      "iconUrl": "https://issues.stage.redhat.com/images/icons/priorities/medium.svg",
      "name": "Normal",
      "id": "10200"
    },
    "labels": ["KWF:TestingTask"],
    "customfield_12311641": null,
    "customfield_12311240": null,
    "aggregatetimeoriginalestimate": null,
    "timeestimate": null,
    "versions": [
      {
        "self": "https://issues.stage.redhat.com/rest/api/2/version/12414808",
        "id": "12414808",
        "description": "PPSync [release:2566]",
        "name": "rhel-9.5",
        "archived": false,
        "released": false
      }
    ],
    "customfield_12317343": null,
    "customfield_12317345": null,
    "issuelinks": [
      {
        "id": "15838757",
        "self": "https://issues.stage.redhat.com/rest/api/2/issueLink/15838757",
        "type": {
          "id": "12310720",
          "name": "Blocks",
          "inward": "is blocked by",
          "outward": "blocks",
          "self": "https://issues.stage.redhat.com/rest/api/2/issueLinkType/12310720"
        },
        "outwardIssue": {
          "id": "16119778",
          "key": "RHEL-45230",
          "self": "https://issues.stage.redhat.com/rest/api/2/issue/16119778",
          "fields": {
            "summary": "A test bug",
            "status": {
              "self": "https://issues.stage.redhat.com/rest/api/2/status/13521",
              "description": "Collaborative work to understand what needs to be done, and confirm understanding with stakeholders.",
              "iconUrl": "https://issues.stage.redhat.com/",
              "name": "Planning",
              "id": "13521",
              "statusCategory": {
                "self": "https://issues.stage.redhat.com/rest/api/2/statuscategory/2",
                "id": 2,
                "key": "new",
                "colorName": "default",
                "name": "To Do"
              }
            },
            "priority": {
              "self": "https://issues.stage.redhat.com/rest/api/2/priority/10200",
              "iconUrl": "https://issues.stage.redhat.com/images/icons/priorities/medium.svg",
              "name": "Normal",
              "id": "10200"
            },
            "issuetype": {
              "self": "https://issues.stage.redhat.com/rest/api/2/issuetype/1",
              "id": "1",
              "description": "A problem that impairs or prevents the functions of the product.",
              "iconUrl": "https://issues.stage.redhat.com/secure/viewavatar?size=xsmall&avatarId=13263&avatarType=issuetype",
              "name": "Bug",
              "subtask": false,
              "avatarId": 13263
            }
          }
        }
      }
    ],
    "customfield_12325240": null,
    "assignee": null,
    "customfield_12317347": null,
    "customfield_12317348": null,
    "customfield_12313942": null,
    "customfield_12313941": null,
    "status": {
      "self": "https://issues.stage.redhat.com/rest/api/2/status/10016",
      "description": "Initial creation status. Implies nothing yet and should be very short lived; also can be a Bugzilla status.",
      "iconUrl": "https://issues.stage.redhat.com/images/icons/statuses/generic.png",
      "name": "New",
      "id": "10016",
      "statusCategory": {
        "self": "https://issues.stage.redhat.com/rest/api/2/statuscategory/2",
        "id": 2,
        "key": "new",
        "colorName": "default",
        "name": "To Do"
      }
    },
    "customfield_12325456": null,
    "customfield_12320040": null,
    "customfield_12325457": null,
    "components": [
      {
        "self": "https://issues.stage.redhat.com/rest/api/2/component/12385030",
        "id": "12385030",
        "name": "kernel-rt / Networking",
        "description": " Networking"
      }
    ],
    "customfield_12325454": null,
    "customfield_12325455": null,
    "customfield_12325452": null,
    "customfield_12325453": null,
    "customfield_12325450": null,
    "customfield_12325451": null,
    "customfield_12320841": null,
    "customfield_12314040": null,
    "customfield_12320844": null,
    "customfield_12320842": null,
    "archiveddate": null,
    "customfield_12310243": null,
    "aggregatetimeestimate": null,
    "customfield_12317278": null,
    "customfield_12317313": null,
    "customfield_12316348": null,
    "customfield_12321540": null,
    "customfield_12323840": null,
    "creator": {
      "self": "https://issues.stage.redhat.com/rest/api/2/user?username=rhn-support-ptalbert",
      "name": "rhn-support-ptalbert",
      "key": "rhn-support-ptalbert",
      "emailAddress": "ptalbert+stage@redhat.com",
      "avatarUrls": {
        "48x48": "https://www.gravatar.com/avatar/b01070041cbed97cf3c642992ea83180?d=mm&s=48",
        "24x24": "https://www.gravatar.com/avatar/b01070041cbed97cf3c642992ea83180?d=mm&s=24",
        "16x16": "https://www.gravatar.com/avatar/b01070041cbed97cf3c642992ea83180?d=mm&s=16",
        "32x32": "https://www.gravatar.com/avatar/b01070041cbed97cf3c642992ea83180?d=mm&s=32"
      },
      "displayName": "Patrick Talbert",
      "active": true,
      "timeZone": "Europe/Madrid"
    },
    "customfield_12321541": null,
    "subtasks": [],
    "customfield_12319740": null,
    "customfield_12323440": null,
    "customfield_12321140": null,
    "customfield_12315141": null,
    "customfield_12320851": null,
    "customfield_12320850": null,
    "reporter": {
      "self": "https://issues.stage.redhat.com/rest/api/2/user?username=rhn-support-ptalbert",
      "name": "rhn-support-ptalbert",
      "key": "rhn-support-ptalbert",
      "emailAddress": "ptalbert+stage@redhat.com",
      "avatarUrls": {
        "48x48": "https://www.gravatar.com/avatar/b01070041cbed97cf3c642992ea83180?d=mm&s=48",
        "24x24": "https://www.gravatar.com/avatar/b01070041cbed97cf3c642992ea83180?d=mm&s=24",
        "16x16": "https://www.gravatar.com/avatar/b01070041cbed97cf3c642992ea83180?d=mm&s=16",
        "32x32": "https://www.gravatar.com/avatar/b01070041cbed97cf3c642992ea83180?d=mm&s=32"
      },
      "displayName": "Patrick Talbert",
      "active": true,
      "timeZone": "Europe/Madrid"
    },
    "aggregateprogress": {
      "progress": 0,
      "total": 0
    },
    "customfield_12315542": null,
    "customfield_12315948": {
      "self": "https://issues.stage.redhat.com/rest/api/2/user?username=network-qe",
      "name": "network-qe",
      "key": "JIRAUSER207946",
      "emailAddress": "network-qe@redhat.com",
      "avatarUrls": {
        "48x48": "https://www.gravatar.com/avatar/1c66d2426e55f988793eec7edc78dbde?d=mm&s=48",
        "24x24": "https://www.gravatar.com/avatar/1c66d2426e55f988793eec7edc78dbde?d=mm&s=24",
        "16x16": "https://www.gravatar.com/avatar/1c66d2426e55f988793eec7edc78dbde?d=mm&s=16",
        "32x32": "https://www.gravatar.com/avatar/1c66d2426e55f988793eec7edc78dbde?d=mm&s=32"
      },
      "displayName": "network-qe rhel",
      "active": true,
      "timeZone": "GMT"
    },
    "customfield_12313240": null,
    "customfield_12319742": null,
    "progress": {
      "progress": 0,
      "total": 0
    },
    "customfield_12323040": null,
    "votes": {
      "self": "https://issues.stage.redhat.com/rest/api/2/issue/RHEL-45235/votes",
      "votes": 0,
      "hasVoted": false
    },
    "customfield_12319743": null,
    "worklog": {
      "startAt": 0,
      "maxResults": 20,
      "total": 0,
      "worklogs": []
    },
    "customfield_12315940": null,
    "archivedby": null,
    "customfield_12317843": null,
    "issuetype": {
      "self": "https://issues.stage.redhat.com/rest/api/2/issuetype/1",
      "id": "1",
      "description": "A problem that impairs or prevents the functions of the product.",
      "iconUrl": "https://issues.stage.redhat.com/secure/viewavatar?size=xsmall&avatarId=13263&avatarType=issuetype",
      "name": "Bug",
      "subtask": false,
      "avatarId": 13263
    },
    "customfield_12317370": null,
    "customfield_12318341": null,
    "customfield_12317372": null,
    "customfield_12317374": null,
    "timespent": null,
    "customfield_12320940": null,
    "project": {
      "self": "https://issues.stage.redhat.com/rest/api/2/project/12332745",
      "id": "12332745",
      "key": "RHEL",
      "name": "RHEL",
      "projectTypeKey": "software",
      "avatarUrls": {
        "48x48": "https://issues.stage.redhat.com/secure/projectavatar?pid=12332745&avatarId=17271",
        "24x24": "https://issues.stage.redhat.com/secure/projectavatar?size=small&pid=12332745&avatarId=17271",
        "16x16": "https://issues.stage.redhat.com/secure/projectavatar?size=xsmall&pid=12332745&avatarId=17271",
        "32x32": "https://issues.stage.redhat.com/secure/projectavatar?size=medium&pid=12332745&avatarId=17271"
      },
      "projectCategory": {
        "self": "https://issues.stage.redhat.com/rest/api/2/projectCategory/10630",
        "id": "10630",
        "description": "These are projects which will be migrated to Red hat Jira (issues.redhat.com)",
        "name": "Product Development-RHEL"
      }
    },
    "customfield_12320944": null,
    "aggregatetimespent": null,
    "customfield_12310220": null,
    "customfield_12310183": null,
    "resolutiondate": null,
    "customfield_12318740": null,
    "workratio": -1,
    "customfield_12317379": null,
    "customfield_12316840": null,
    "customfield_12317259": [
      {
        "self": "https://issues.stage.redhat.com/rest/api/2/customFieldOption/34012",
        "value": "sst_networking_core",
        "id": "34012",
        "disabled": false
      }
    ],
    "customfield_12316841": null,
    "customfield_12325445": null,
    "customfield_12319040": null,
    "customfield_12325446": null,
    "customfield_12325047": null,
    "watches": {
      "self": "https://issues.stage.redhat.com/rest/api/2/issue/RHEL-45235/watchers",
      "watchCount": 3,
      "isWatching": true
    },
    "customfield_12325443": null,
    "customfield_12325444": null,
    "customfield_12325441": null,
    "customfield_12325044": null,
    "customfield_12319286": {
      "self": "https://issues.stage.redhat.com/rest/api/2/customFieldOption/30765",
      "value": "Unspecified",
      "id": "30765",
      "disabled": false
    },
    "customfield_12325442": null,
    "customfield_12325043": null,
    "customfield_12325046": null,
    "created": "2024-09-05T09:13:45.199+0000",
    "customfield_12321240": null,
    "customfield_12325440": null,
    "customfield_12325045": null,
    "customfield_12325449": null,
    "customfield_12323940": null,
    "customfield_12325447": null,
    "customfield_12325448": null,
    "customfield_12320948": {
      "self": "https://issues.stage.redhat.com/rest/api/2/customFieldOption/27850",
      "value": "Needs Review",
      "id": "27850",
      "disabled": false
    },
    "customfield_12320947": [
      {
        "self": "https://issues.stage.redhat.com/rest/api/2/customFieldOption/27714",
        "value": "Unclassified",
        "id": "27714",
        "disabled": false
      }
    ],
    "customfield_12320946": null,
    "customfield_12325040": null,
    "customfield_12325042": null,
    "customfield_12325041": null,
    "updated": "2024-09-05T09:13:49.325+0000",
    "customfield_12311840": null,
    "customfield_12322143": null,
    "customfield_12324841": null,
    "customfield_12324840": null,
    "customfield_12322140": null,
    "customfield_12322141": null,
    "customfield_12316142": null,
    "customfield_12322142": null,
    "timeoriginalestimate": null,
    "description": "A kernel-rt variant of RHEL-45230.",
    "customfield_12324843": null,
    "customfield_12322148": null,
    "customfield_12324842": [],
    "timetracking": {},
    "security": {
      "self": "https://issues.stage.redhat.com/rest/api/2/securitylevel/11694",
      "id": "11694",
      "description": "Restricts access to Red Hat employees who are approved to view product development information",
      "name": "Red Hat Engineering Authorized"
    },
    "attachment": [],
    "customfield_12316542": {
      "self": "https://issues.stage.redhat.com/rest/api/2/customFieldOption/14655",
      "value": "False",
      "id": "14655",
      "disabled": false
    },
    "customfield_12324041": null,
    "customfield_12316543": {
      "self": "https://issues.stage.redhat.com/rest/api/2/customFieldOption/14657",
      "value": "False",
      "id": "14657",
      "disabled": false
    },
    "customfield_12324040": null,
    "customfield_12310840": "9223372036854775807",
    "customfield_12316544": "None",
    "summary": "A test bug [kernel-rt]",
    "customfield_12323640": null,
    "customfield_12323642": null,
    "customfield_12317360": null,
    "customfield_12323641": null,
    "customfield_12325143": null,
    "customfield_12318450": null,
    "customfield_12325142": null,
    "customfield_12323242": null,
    "customfield_12313040": null,
    "customfield_12323649": null,
    "customfield_12323644": null,
    "customfield_12321740": null,
    "customfield_12323643": null,
    "customfield_12323646": null,
    "customfield_12323645": null,
    "environment": null,
    "customfield_12315740": null,
    "customfield_12313441": "",
    "customfield_12313440": "0.0",
    "duedate": null,
    "customfield_12311140": null,
    "customfield_12319940": null,
    "customfield_12319269": null,
    "customfield_12317366": null,
    "customfield_12325141": null,
    "customfield_12325140": null,
    "customfield_12310213": null,
    "customfield_12311940": "2|i156w7:"
  }
}
